<svg xmlns="http://www.w3.org/2000/svg" viewBox="0 0 78 4" width="78" height="4">
	<style>
		tspan { white-space:pre }
		.shp0 { fill: #18cfab } 
	</style>
	<g id="Service">
		<g id="Title copy 3">
			<g id="Style copy">
				<path id="Shape 1 copy" class="shp0" d="M1.46 2.99L1.46 2L77 2L77 2.99L1.46 2.99" />
			</g>
		</g>
	</g>
</svg>